Практикуемся:

1.
Считать размер массива целых чисел, заполнить его значениями с клавиатуры
Вывести:
* построчно все элементы
* максимальный и минимальный элементы
* среднее арифметическое элементов
* элемент, встречающийся чаще остальных (гарантируется, что такой элемент 1)
* количество элементов, меньше х

==============================================================================
2.
* Разворот массива (считали 1, 2, 3, превратили в массив 3,2,1 и вывели)
* Разворот не используя второй массив (с постоянным кол-вом дополнительной памяти)
* Считать массив, переместить все 0 (если они есть) в начало
===============================================================================